{
	"id": "c513e718-7092-402f-9bd6-2427c4162049",
	"name": "BankAccounting",
	"values": [
		{
			"key": "host",
			"value": "http://localhost:5098",
			"type": "default",
			"enabled": true
		}
	],
	"_postman_variable_scope": "environment",
	"_postman_exported_at": "2023-09-24T18:14:28.092Z",
	"_postman_exported_using": "Postman/10.17.4"
}